…
``` r
# glimpse(rnc_rhymes)

rnc_rhymes %>% 
  select(from, to, poem_id) %>% 
  pivot_longer(!poem_id, names_to = "group", values_to = "word") %>% 
  mutate(word = tolower(word)) %>% 
  count(word, sort = T) %>% 
  mutate(ending = ifelse(nchar(word) < 2, paste0("_", word), word),
         ending = str_extract(ending, "\\w{2}$")) %>% 
  filter(ending %in% c("ба", "ва", "га")) # 545 rows / words on ba-va-ga
```

    # A tibble: 515 × 3
       word          n ending
       <chr>     <int> <chr> 
     1 слова       195 ва    
     2 друга       132 га    
     3 бога        129 га    
     4 снова       115 ва    
     5 слава        84 ва    
     6 чувства      75 ва    
     7 искусства    73 ва    
     8 голова       70 ва    
     9 неба         69 ба    
    10 гроба        63 ба    
    # ℹ 505 more rows
…
### C-1835 comparison

``` r
c1835_rhymes %>% 
  select(id, from, to) %>% 
  pivot_longer(!id, names_to = "group", values_to = "word") %>% 
  mutate(word = tolower(word)) %>% 
  count(word, sort = T) %>% 
  mutate(ending = ifelse(nchar(word) < 2, paste0("_", word), word),
         ending = str_extract(word, "\\w{2}$")) %>% 
  filter(ending %in% c("ба", "ва", "га")) # 309 
```

    # A tibble: 294 × 3
       word          n ending
       <chr>     <int> <chr> 
     1 бога        104 га    
     2 слова        89 ва    
     3 друга        84 га    
     4 слава        62 ва    
     5 снова        56 ва    
     6 чувства      50 ва    
     7 дева         49 ва    
     8 судьба       46 ба    
     9 подруга      41 га    
    10 искусства    40 ва    
    # ℹ 284 more rows
…
