…
``` r
rhymes_1835 %>% 
  group_by(year) %>% 
  count(rhyme_alph, sort = T) %>% 
  mutate(rank = row_number()) %>% 
  top_n(n, n = 10) %>% 
  arrange(-desc(year)) %>% 
  ungroup() %>% 
  left_join(total_year %>% rename(total = n), by = "year") %>% 
  mutate(perc = round((n / total) * 100, 2)) 
```

    # A tibble: 72 × 6
       year  rhyme_alph       n  rank total  perc
       <chr> <chr>        <int> <int> <int> <dbl>
     1 1835  нет свет        44     1 17873  0.25
     2 1835  ночи очи        32     2 17873  0.18
     3 1835  нас час         24     3 17873  0.13
     4 1835  меня огня       23     4 17873  0.13
     5 1835  мечты ты        23     5 17873  0.13
     6 1835  вновь любовь    22     6 17873  0.12
     7 1835  глас час        21     7 17873  0.12
     8 1835  дней моей       19     8 17873  0.11
     9 1835  дня меня        19     9 17873  0.11
    10 1835  грудь путь      18    10 17873  0.1 
    # ℹ 62 more rows
…
### Coefficient of variation

Rhyme words

``` r
all_ranks <- rhyme_words %>% 
  count(word, sort = T) %>% 
  mutate(rel_freq_total = n / nrow(rhyme_words))

all_ranks
```

    # A tibble: 34,510 × 3
       word      n rel_freq_total
       <chr> <int>          <dbl>
     1 я       766        0.00471
     2 меня    531        0.00327
     3 она     521        0.00321
     4 свет    471        0.00290
     5 мне     409        0.00252
     6 моей    401        0.00247
     7 нет     393        0.00242
     8 ты      392        0.00241
     9 тобой   387        0.00238
    10 мечты   371        0.00228
    # ℹ 34,500 more rows
…
``` r
rhymes_1835 %>%
  filter(year == "1835") %>% 
  left_join(corpus_1835 %>% select(text_id, author_text),
            by = "text_id") %>% 
  count(author_text, sort = T) %>% 
  filter(author_text != "" & n > 50)
```

    # A tibble: 37 × 2
       author_text          n
       <chr>            <int>
     1 Жуковский В.А.    3400
     2 Крылов И.А.       3160
     3 Баратынский Е.А.  1759
     4 Зилов А.М.        1292
     5 Бенедиктов В.Г.    845
     6 Тимофеев А.В.      655
     7 Меркли М.М.        554
     8 Деларю М.Д.        403
     9 Савурский Н.       386
    10 Пушкин А.С.        340
    # ℹ 27 more rows
…
    data:  mfw_100_rhyme$rank_rhyme and mfw_100_rhyme$rank_inline
    z = 4.0502, p-value = 5.117e-05
    alternative hypothesis: true tau is not equal to 0
    sample estimates:
          tau 
    0.2747475 

``` r
mfw_100_rhyme %>% 
  arrange(-desc(rank_rhyme)) %>% 
  head(25)
```

    # A tibble: 25 × 3
       word  rank_rhyme rank_inline
       <chr>      <int>       <int>
     1 я              1           6
     2 меня           2          43
     3 она            3          45
     4 свет           4         119
     5 мне            5          13
     6 моей           6          95
     7 нет            7          33
     8 ты             8           8
     9 тобой          9         169
    10 мечты         10         230
    # ℹ 15 more rows
…
    data:  mfw_100_rhyme$rank_rhyme and mfw_100_rhyme$rank_inline
    z = 3.9311, p-value = 8.455e-05
    alternative hypothesis: true tau is not equal to 0
    sample estimates:
          tau 
    0.2666667 

``` r
mfw_100_rhyme %>% 
  arrange(-desc(rank_rhyme)) %>% 
  head(50)
```

    # A tibble: 50 × 3
       word  rank_rhyme rank_inline
       <chr>      <int>       <int>
     1 я              1           6
     2 свет           2         122
     3 меня           3          40
     4 она            4          35
     5 тобой          5         148
     6 нет            6          31
     7 ты             7           8
     8 моей           8          89
     9 мечты          9         190
    10 дней          10         225
    # ℹ 40 more rows
…
    data:  mfw_1000_rhyme$rank_rhyme and mfw_1000_rhyme$rank_inline
    z = 15.492, p-value < 2.2e-16
    alternative hypothesis: true tau is not equal to 0
    sample estimates:
          tau 
    0.3291494 

``` r
mfw_1000_rhyme %>% 
  arrange(-desc(rank_rhyme)) %>% 
  tail(25)
```

    # A tibble: 25 × 3
       word    rank_rhyme rank_inline
       <chr>        <int>       <int>
     1 никак          976        1801
     2 ногами         977        8988
     3 огней          978        5790
     4 око            979        7651
     5 плоды          980         996
     6 пожар          981        2141
     7 поймет         982        1747
     8 пою            983        2047
     9 пройдет        984         821
    10 прости         985         237
    # ℹ 15 more rows
…
    data:  mfw_10000_rhyme$rank_rhyme and mfw_10000_rhyme$rank_inline
    z = 47.516, p-value < 2.2e-16
    alternative hypothesis: true tau is not equal to 0
    sample estimates:
         tau 
    0.359658 

``` r
mfw_10000_rhyme %>% 
  arrange(-desc(rank_rhyme)) %>% 
  tail(25)
```

    # A tibble: 25 × 3
       word          rank_rhyme rank_inline
       <chr>              <int>       <int>
     1 неровный            9953       38145
     2 неси                9954        3851
     3 несметных           9956       20200
     4 несправедливы       9958       38219
     5 несчастен           9961       38245
     6 несчастливец        9962       20211
     7 несчастны           9963       20217
     8 несчастным          9964        5150
     9 несчетны            9965       38262
    10 нетленны            9969       38289
    # ℹ 15 more rows
…
    data:  mfw_100_rhyme$rank_rhyme and mfw_100_rhyme$rank_inline
    z = 3.3224, p-value = 0.0008924
    alternative hypothesis: true tau is not equal to 0
    sample estimates:
          tau 
    0.2265512 

``` r
mfw_100_rhyme %>% 
  arrange(-desc(rank_rhyme)) %>% 
  head(50)
```

    # A tibble: 50 × 3
       word  rank_rhyme rank_inline
       <chr>      <int>       <int>
     1 я              1           7
     2 она            2          60
     3 мне            3          14
     4 меня           4          46
     5 свет           5         110
     6 лет            6         287
     7 очи            7         105
     8 моей           8         109
     9 ночи           9         311
    10 моя           10         100
    # ℹ 40 more rows
…
    data:  mfw_1000_rhyme$rank_rhyme and mfw_1000_rhyme$rank_inline
    z = 12.728, p-value < 2.2e-16
    alternative hypothesis: true tau is not equal to 0
    sample estimates:
          tau 
    0.2837049 

``` r
mfw_1000_rhyme %>% 
  arrange(-desc(rank_rhyme)) %>% 
  tail(25)
```

    # A tibble: 25 × 3
       word     rank_rhyme rank_inline
       <chr>         <int>       <int>
     1 забвенья        972        3329
     2 зари            973        1042
     3 зимой           975        2496
     4 златая          976        5153
     5 знамя           977        2503
     6 золотая         978       10841
     7 золотит         979        5173
     8 золотом         980         934
     9 играть          982       10892
    10 играя           983        5190
    # ℹ 15 more rows
…
    data:  mfw_10000_rhyme$rank_rhyme and mfw_10000_rhyme$rank_inline
    z = 32.254, p-value < 2.2e-16
    alternative hypothesis: true tau is not equal to 0
    sample estimates:
          tau 
    0.3265279 

``` r
mfw_10000_rhyme %>% 
  arrange(-desc(rank_rhyme)) %>% 
  tail(25)
```

    # A tibble: 25 × 3
       word         rank_rhyme rank_inline
       <chr>             <int>       <int>
     1 снедает            9878       17198
     2 снежный            9879       17204
     3 снесу              9880       17211
     4 сновиденья         9885       17216
     5 сова               9901       17251
     6 совершенства       9904        6721
     7 согреет            9913       17276
     8 сожжет             9924       17291
     9 создам             9929       17298
    10 сойдут             9936       17316
    # ℹ 15 more rows
