…
``` r
node_freq <- word %>% 
  unnest_tokens(input = rhyme_pair, output = word, token = "words") %>% 
  count(word, sort = T) %>% 
  rename(source = word)

nodelist <- tibble(source = unique(c(word$from, word$to))) %>% 
  #mutate(idn = row_number()) %>% 
  left_join(node_freq, by = "source")
nodelist
```

    # A tibble: 49 × 2
       source        n
       <chr>     <int>
     1 любви       228
     2 прошли        1
     3 твои         19
     4 крови        58
     5 свои          9
     6 груди        14
     7 мои          24
     8 они           6
     9 возобнови     1
    10 земли        17
    # ℹ 39 more rows
…
# meters
closures %>% 
  select(-id, -formula) %>% 
  pivot_longer(!meter) %>% 
  count(meter, value) %>% 
  left_join(closures %>% 
    select(-id, -formula) %>% 
    pivot_longer(!meter) %>% 
    count(meter) %>% 
    rename(total = n), by = "meter") %>% 
  mutate(perc = round((n / total) * 100, 2)) %>% 
  arrange(-desc(meter)) 
```

    # A tibble: 29 × 5
       meter      value          n total  perc
       <fct>      <chr>      <int> <int> <dbl>
     1 Amphibrach ""            13 12896  0.1 
     2 Amphibrach "dactylic"   466 12896  3.61
     3 Amphibrach "fem"       5220 12896 40.5 
     4 Amphibrach "masc"      6742 12896 52.3 
     5 Amphibrach  <NA>        455 12896  3.53
     6 Anapest    "dactylic"    58  3846  1.51
     7 Anapest    "fem"       1100  3846 28.6 
     8 Anapest    "masc"      2546  3846 66.2 
     9 Anapest     <NA>        142  3846  3.69
    10 Dactyl     ""             5  1854  0.27
    # ℹ 19 more rows
…
closures %>% 
  select(-id, -meter) %>% 
  pivot_longer(!formula) %>% 
  count(formula, value) %>% 
  left_join(closures %>% 
    select(-id, -meter) %>% 
    pivot_longer(!formula) %>% 
    count(formula) %>% 
    rename(total = n), by = "formula") %>% 
  mutate(perc = round((n / total) * 100, 2)) %>% 
  filter(str_detect(formula, "Iamb|Trochee") & value != "" & !is.na(value)) %>% 
  arrange(-desc(formula)) 
```

    # A tibble: 36 × 5
       formula value        n total  perc
       <chr>   <chr>    <int> <int> <dbl>
     1 Iamb_1  dactylic    14    22 63.6 
     2 Iamb_1  fem          1    22  4.55
     3 Iamb_1  masc         7    22 31.8 
     4 Iamb_2  dactylic     1   168  0.6 
     5 Iamb_2  fem         70   168 41.7 
     6 Iamb_2  masc        95   168 56.6 
     7 Iamb_3  dactylic   295  3666  8.05
     8 Iamb_3  fem       1908  3666 52.0 
     9 Iamb_3  masc      1341  3666 36.6 
    10 Iamb_4  dactylic  1034 59286  1.74
    # ℹ 26 more rows
…
``` r
total_meters <- inline_freq %>% 
  count(meter) %>% rename(total = n)

inline_freq %>% 
  left_join(all_pos %>% rename(word = word_from), by = "word") %>% 
  count(upos, meter, sort = TRUE) %>% 
  left_join(total_meters, by = "meter") %>% 
  mutate(perc = round((n / total) * 100 , 2)) %>% 
  arrange(-desc(meter))
```

    # A tibble: 66 × 5
       upos  meter          n total  perc
       <chr> <fct>      <int> <int> <dbl>
     1 NOUN  Amphibrach  6187 16635 37.2 
     2 VERB  Amphibrach  5535 16635 33.3 
     3 ADJ   Amphibrach  3862 16635 23.2 
     4 ADV   Amphibrach   562 16635  3.38
     5 PRON  Amphibrach   300 16635  1.8 
     6 NUM   Amphibrach    51 16635  0.31
     7 ADP   Amphibrach    43 16635  0.26
     8 PART  Amphibrach    43 16635  0.26
     9 <NA>  Amphibrach    24 16635  0.14
    10 CONJ  Amphibrach    15 16635  0.09
    # ℹ 56 more rows
…
    `summarise()` has grouped output by 'meter'. You can override using the
    `.groups` argument.

``` r
inline_freq %>% 
  mutate(word = ifelse(nchar(word) < 2, paste0("_", word), word),
         ending = str_extract(word, "\\w{2}$")) %>% 
  count(meter, ending, sort = T) %>% 
  left_join(meters_total, by = "meter") %>% 
  mutate(perc = round((n / total) * 100, 2) ) %>% 
  group_by(meter) %>% 
  slice_max(order_by = perc, n = 5)
```

    # A tibble: 30 × 5
    # Groups:   meter [6]
       meter      ending     n total  perc
       <fct>      <chr>  <int> <int> <dbl>
     1 Amphibrach ся       811 67779  1.2 
     2 Amphibrach ой       728 67779  1.07
     3 Amphibrach ый       578 67779  0.85
     4 Amphibrach сь       560 67779  0.83
     5 Amphibrach ет       507 67779  0.75
     6 Anapest    ой       357 22808  1.57
     7 Anapest    ся       313 22808  1.37
     8 Anapest    ть       242 22808  1.06
     9 Anapest    ый       241 22808  1.06
    10 Anapest    сь       238 22808  1.04
    # ℹ 20 more rows
…
rhymes %>% 
  select(meter, from, to) %>% 
  pivot_longer(!meter, values_to = "word") %>% 
  mutate(word = ifelse(nchar(word) < 2, paste0("_", word), word),
         ending = str_extract(word, "\\w{2}$")) %>% 
  count(ending, meter) %>% 
  left_join(meters_total, by = "meter") %>% 
  mutate(perc = round((n / total) * 100, 2) ) %>% 
  group_by(meter) %>% 
  slice_max(order_by = perc, n = 5)
```

    # A tibble: 30 × 5
    # Groups:   meter [6]
       ending meter          n total  perc
       <chr>  <fct>      <int> <int> <dbl>
     1 ой     Amphibrach   974  6448 15.1 
     2 ет     Amphibrach   626  6448  9.71
     3 ей     Amphibrach   439  6448  6.81
     4 ит     Amphibrach   376  6448  5.83
     5 ою     Amphibrach   351  6448  5.44
     6 ой     Anapest      310  1923 16.1 
     7 ет     Anapest      212  1923 11.0 
     8 ей     Anapest      143  1923  7.44
     9 ть     Anapest      121  1923  6.29
    10 ит     Anapest      107  1923  5.56
    # ℹ 20 more rows
…
meters_total <- all_masc_words %>% count(meter) %>% rename(total = n)

all_masc_words %>% 
  mutate(word = ifelse(nchar(word) < 2, paste0("_", word), word),
         ending = str_extract(word, "\\w{2}$")) %>% 
  count(ending, meter) %>% 
  left_join(meters_total, by = "meter") %>% 
  mutate(perc = round((n / total) * 100, 2) ) %>% 
  group_by(meter) %>% 
  slice_max(order_by = perc, n = 5)
```

    # A tibble: 30 × 5
    # Groups:   meter [6]
       ending meter          n total  perc
       <chr>  <fct>      <int> <int> <dbl>
     1 ой     Amphibrach   612  6742  9.08
     2 ей     Amphibrach   376  6742  5.58
     3 ть     Amphibrach   314  6742  4.66
     4 ит     Amphibrach   264  6742  3.92
     5 на     Amphibrach   238  6742  3.53
     6 ой     Anapest      256  2546 10.0 
     7 ей     Anapest      134  2546  5.26
     8 ть     Anapest      105  2546  4.12
     9 ал     Anapest       95  2546  3.73
    10 на     Anapest       92  2546  3.61
    # ℹ 20 more rows
…
Full network

``` r
ba_full <- ending_net(ba_ending, edges_min = 0)

ba_full %>% activate(nodes)
```

    # A tbl_graph: 27 nodes and 98 edges
    #
    # An undirected multigraph with 4 components
    #
    # A tibble: 27 × 3
      source     n rhymer_pr
      <chr>  <int> <chr>    
    1 геба       3 present  
    2 судьба    17 present  
    3 неба      32 present  
    4 гульба     2 present  
    5 гроба     36 present  
    6 оба        8 present  
    # ℹ 21 more rows
    #
    # A tibble: 98 × 5
       from    to     n from_pos to_pos
      <int> <int> <int> <chr>    <chr> 
    1     1     3     3 S        S     
    2     2    14     5 S        S     
    3     3     7    13 S        S     
    # ℹ 95 more rows
…
