…
MFW 3-syll meters

``` r
all_words %>% 
  filter(meter %in% c("Dactyl", "Amphibrach", "Anapest") & closure %in% closures) %>% 
  group_by(meter, closure) %>% 
  count(word_acc, sort = T) %>% 
  slice_max(order_by = n, n = 5)
```

    # A tibble: 60 × 4
    # Groups:   meter, closure [9]
       meter      closure  word_acc          n
       <chr>      <chr>    <chr>         <int>
     1 Amphibrach dactylic ми'лого           5
     2 Amphibrach dactylic ру'сские          5
     3 Amphibrach dactylic азо'вского        4
     4 Amphibrach dactylic байка'льского     4
     5 Amphibrach dactylic до'брые           4
     6 Amphibrach dactylic каспи'йского      4
     7 Amphibrach dactylic ла'сточка         4
     8 Amphibrach fem      мо'ре            34
     9 Amphibrach fem      о'чи             29
    10 Amphibrach fem      но'чи            27
    # ℹ 50 more rows
…
