…
         pos_pair = ifelse(str_detect(pos_pair, "VERB"), 
                           str_replace_all(pos_pair, "VERB", "ГЛ"),
                           pos_pair),
         pos_pair = ifelse(str_detect(pos_pair, "ADJ"), 
                           str_replace_all(pos_pair, "ADJ", "ПРИЛ"),
                           pos_pair),
         pos_pair = ifelse(str_detect(pos_pair, "PRON"), 
                           str_replace_all(pos_pair, "PRON", "МЕСТ"),
                           pos_pair), 
         pos_pair = ifelse(str_detect(pos_pair, "ADV"), 
                           str_replace_all(pos_pair, "ADV", "НАР"),
                           pos_pair))
```

    # A tibble: 184 × 1
       pos_pair        
       <chr>           
     1 СУЩ_3 -- СУЩ_3  
     2 СУЩ_2 -- СУЩ_3  
     3 СУЩ_3 -- СУЩ_4  
     4 СУЩ_2 -- СУЩ_2  
     5 ГЛ_3 -- ГЛ_4    
     6 ГЛ_4 -- ГЛ_4    
     7 ГЛ_3 -- ГЛ_3    
     8 ПРИЛ_3 -- ПРИЛ_3
     9 ПРИЛ_3 -- ПРИЛ_4
    10 ГЛ_2 -- ГЛ_3    
    # ℹ 174 more rows
…
``` r
fem_pairs %>% 
  mutate(ending_pair = paste0("-", from_ending, " -- -", to_ending), 
         pos_pair = paste0(from_pos, " -- ", to_pos)) %>% 
  filter(ending_pair %in% less_var_pos_f) %>% 
  group_by(ending_pair) %>% 
  count(pos_pair, sort = F) %>% 
  select(-n) %>% 
  summarise(n_var = n(),
    pos_list = paste0(pos_pair, collapse = ", ")) %>% 
  arrange(-desc(n_var)) %>% 
  head(length(less_var_pos_f))
```

    # A tibble: 25 × 3
       ending_pair          n_var pos_list            
       <chr>                <int> <chr>               
     1 -а'дость -- -а'дость     1 NOUN -- NOUN        
     2 -а'ет -- -а'ет           1 VERB -- VERB        
     3 -а'ет -- -я'ет           1 VERB -- VERB        
     4 -а'лся -- -а'лся         1 VERB -- VERB        
     5 -а'на -- -а'на           1 NOUN -- NOUN        
     6 -а'ний -- -а'ний         1 NOUN -- NOUN        
     7 -а'нье -- -а'нье         1 NOUN -- NOUN        
     8 -а'нья -- -а'нья         1 NOUN -- NOUN        
     9 -а'ться -- -а'ться       1 VERB_inf -- VERB_inf
    10 -а'ют -- -а'ют           1 VERB -- VERB        
    # ℹ 15 more rows
…
``` r
masc_pairs %>% 
  mutate(ending_pair = paste0("-", from_ending, " -- -", to_ending), 
         feats_pair = paste0(from_feats, " -- ", to_feats)) %>% 
  filter(ending_pair %in% intersect(less_var_pos, less_var_feats)) %>% 
  group_by(ending_pair, feats_pair) %>% 
  sample_n(1) %>% 
  select(ending_pair, rhyme_alph, from, to, from_pos, to_pos, feats_pair) %>% 
  ungroup() %>% 
  distinct(rhyme_alph, .keep_all = TRUE)
```

    # A tibble: 131 × 7
       ending_pair    rhyme_alph      from     to       from_pos to_pos feats_pair  
       <chr>          <chr>           <chr>    <chr>    <chr>    <chr>  <chr>       
     1 -а'ль -- -а'ль печаль скрыжаль скрыжаль печаль   ADV      NOUN   ADV,вводн= …
     2 -а'ль -- -а'ль жаль печаль     жаль     печаль   ADV      NOUN   ADV,прдк= -…
     3 -а'ль -- -а'ль жаль хрусталь   жаль     хрусталь ADV      NOUN   ADV,прдк= -…
     4 -а'ль -- -а'ль вдаль жаль      вдаль    жаль     ADV      ADV    ADV= -- ADV…
     5 -а'ль -- -а'ль вдаль печаль    вдаль    печаль   ADV      NOUN   ADV= -- S,ж…
     6 -а'ль -- -а'ль даль печаль     печаль   даль     NOUN     NOUN   S,жен,неод=…
     7 -а'ль -- -а'ль даль хрусталь   даль     хрусталь NOUN     NOUN   S,жен,неод=…
     8 -а'ль -- -а'ль враль жаль      враль    жаль     NOUN     ADV    S,муж,од=им…
     9 -а'ль -- -а'ль даль москаль    москаль  даль     NOUN     NOUN   S,муж,од=им…
    10 -а'р -- -а'р   нар удар        нар      удар     NOUN     NOUN   S,гео,неод=…
    # ℹ 121 more rows
…
Smallest POS pair variation – NB -енья / -енье гнезда (вдохновенье /
вдохновенья…)

``` r
fem_words %>% 
  filter(ending_pair %in% less_var_pos_f) %>% 
  group_by(ending_pair) %>% 
  count(word, sort = T) %>% 
  select(-n) %>% 
  summarise(n_var = n(),
            word_list = paste0(word, collapse = ", ")) %>% 
  arrange(-desc(n_var))
```

    # A tibble: 25 × 3
       ending_pair          n_var word_list                                         
       <chr>                <int> <chr>                                             
     1 -а'дость -- -а'дость     3 радость, младость, сладость                       
     2 -о'чи -- -о'чи           3 ночи, очи, колочи                                 
     3 -и'ра -- -и'ра          24 мира, лира, эфира, кумира, порфира, пира, зефира,…
     4 -о'ды -- -о'ды          24 природы, годы, свободы, народы, непогоды, своды, …
     5 -о'да -- -о'да          27 природа, народа, свобода, свода, года, непогода, …
     6 -о'ры -- -о'ры          35 взоры, горы, авроры, разговоры, хоры, уборы, укор…
     7 -о'дит -- -о'дит        38 бродит, находит, приходит, заводит, ходит, подход…
     8 -и'ца -- -и'ца          39 царица, денница, девица, птица, темница, столица,…
     9 -а'ний -- -а'ний        52 мечтаний, страданий, желаний, воспоминаний, упова…
    10 -а'на -- -а'на          59 тумана, океана, обмана, великана, стана, ивана, у…
    # ℹ 15 more rows
…
