…
### Totals - authors

``` r
c35_rw %>% 
  filter(!is.na(author_name)) %>% 
  group_by(author_name) %>% 
  count(sort = T) %>% 
  head(40)
```

    # A tibble: 40 × 2
    # Groups:   author_name [40]
       author_name          n
       <chr>            <int>
     1 Жуковский В.А.    7382
     2 Крылов И.А.       6402
     3 Бороздна И.П.     4676
     4 Быстроглазов А.   4082
     5 Бенедиктов В.Г.   4010
     6 Бернет Е.         3914
     7 Баратынский Е.А.  3830
     8 Мейснер А.        3158
     9 Смирнова А.       3132
    10 Шахова Е.Н.       3090
    # ℹ 30 more rows

``` r
rnc_rw %>% 
  group_by(author_name) %>% 
  count(sort = T) %>% 
  head(40)
```

    # A tibble: 40 × 2
    # Groups:   author_name [40]
       author_name         n
       <chr>           <int>
     1 В. А. Жуковский 17012
     2 А. С. Пушкин    14624
     3 Г. Р. Державин  12700
     4 Н. М. Языков     8814
     5 И. И. Дмитриев   8214
     6 П. А. Вяземский  6106
     7 И. А. Крылов     5992
     8 В. В. Капнист    5928
     9 И. И. Хемницер   5128
    10 Н. М. Карамзин   4908
    # ℹ 30 more rows
…
  # bind together
  f <- cbind(mfw, mf_endings[, -1], mf_possyl_masc[, -1], mf_possyl_fem[, -1])
  
  f <- f %>% 
    mutate(smpl = i)
  
  f[is.na(f)] <- 0 # remove na
  
  x <- rbind(x, f)
}  
  
x
```

    # A tibble: 60 × 237
    # Groups:   author_name [20]
       author_name     блистать   бог  быть венец внимать  вода волна    вы говорить
       <chr>              <int> <int> <int> <int>   <int> <int> <int> <int>    <int>
     1 "Батюшков К. Н…        2     3     3     3       1     4     3     2        3
     2 "Бенедиктов В.…        1     2     1     2       1     3     3     2        3
     3 "Бернет Е."            1     2     4     0       2     2     1     0        3
     4 "Бороздна И.П."        5     1     6     0       0     6     2     2        1
     5 "Дельвиг А. А.…        0     7     3     2       1     1     2     6        4
     6 "Державин Г. Р…        3     4     0     3       3     2     5     0        1
     7 "Дмитриев И. И…        1     6     2     0       0     4     1     2        6
     8 "Крылов И. А. "        1     3     8     1       0     4     0     2        7
     9 "Мейснер А."           2     2     3     0       1     1     3     1        0
    10 "Мерзляков А. …        0     7     5     1       2     1     3     3        3
    # ℹ 50 more rows
    # ℹ 227 more variables: год <int>, гора <int>, грудь <int>, давать <int>,
    #   день <int>, друг <int>, душа <int>, желание <int>, жить <int>, земля <int>,
    #   золотой <int>, красота <int>, лира <int>, любить <int>, любовь <int>,
    #   мечта <int>, мечтание <int>, мир <int>, могила <int>, мой <int>,
    #   молодой <int>, море <int>, мы <int>, наслаждение <int>, небо <int>,
    #   нет <int>, огонь <int>, один <int>, око <int>, он <int>, она <int>, …
…
``` r
authors_slctd <- c35_rw %>% 
  mutate(author_name = ifelse(is.na(author_name), "Анонимы", author_name)) %>% 
  group_by(author_name) %>% 
  count(sort = T) %>% 
  filter(n > 1500 & !author_name %in% c("Жуковский В.А.", 
                                        "Крылов И.А.", 
                                        "Смирнова А.")) %>% 
  select(author_name) %>% 
  mutate(corpus = ifelse(author_name == "Бенедиктов В.Г.", "Бенедиктов", "Другие"))

authors_slctd
```

    # A tibble: 27 × 2
    # Groups:   author_name [27]
       author_name      corpus    
       <chr>            <chr>     
     1 Анонимы          Другие    
     2 Бороздна И.П.    Другие    
     3 Быстроглазов А.  Другие    
     4 Бенедиктов В.Г.  Бенедиктов
     5 Бернет Е.        Другие    
     6 Баратынский Е.А. Другие    
     7 Мейснер А.       Другие    
     8 Шахова Е.Н.      Другие    
     9 Тимофеев А.В.    Другие    
    10 Некрасов Н.А.    Другие    
    # ℹ 17 more rows
…
  # bind together
  f <- cbind(mfw, mf_endings[, -1], mf_possyl_masc[, -1], mf_possyl_fem[, -1])
  
  f <- f %>% 
    mutate(smpl = i)
  
  f[is.na(f)] <- 0 # remove na
  
  x <- rbind(x, f)
}  
  
x
```

    # A tibble: 54 × 227
    # Groups:   author_name [27]
       author_name      бог  быть   век венец  взор  вода волна говорить  гора грудь
       <chr>          <int> <int> <int> <int> <int> <int> <int>    <int> <int> <int>
     1 Алексеев П.Ф.      3     2     3     1     3     5     7        6     1     3
     2 Анонимы            4     5     1     1     2     3     2        2     2     1
     3 Бакунин И.М.       2     3     4     2     1     1     7        2     3     0
     4 Баратынский Е…     3     3     1     1     3     5     3        0     1     1
     5 Башкатов А.        4    10     6     2     2     0     0        3     0     0
     6 Бенедиктов В.…     0     1     1     5     0     2     5        2     0     6
     7 Бернет Е.          2     3     1     1     1     0     6        4     3     2
     8 Бороздна И.П.      2     2     1     2     2     3     0        0     5     0
     9 Быстроглазов …     0     8     1     1     1     2     4        1     2     1
    10 Демидов М.А.       3     7     1     0     3     2     4        0     4     3
    # ℹ 44 more rows
    # ℹ 216 more variables: давать <int>, день <int>, друг <int>, душа <int>,
    #   земля <int>, знать <int>, золотой <int>, красота <int>, лететь <int>,
    #   любить <int>, любовь <int>, мечта <int>, мир <int>, могила <int>,
    #   мой <int>, молодой <int>, море <int>, небесный <int>, небо <int>,
    #   ночь <int>, огонь <int>, один <int>, око <int>, он <int>, она <int>,
    #   печаль <int>, покой <int>, поле <int>, природа <int>, путь <int>, …
…
