…
``` r
# obviously not enough data
```

Iamb poems counter

``` r
corpus %>% 
  filter(meter == "Iamb" & author_text != "") %>% 
  unnest_tokens(input = text_cln, output = word, token = "words") %>% 
  count(author_text , sort = T) %>% 
  filter(n > 6000)
```

    # A tibble: 25 × 2
       author_text          n
       <chr>            <int>
     1 Крылов И.А.      34756
     2 Жуковский В.А.   30715
     3 Кульман Е.Б.     25338
     4 Бороздна И.П.    19498
     5 Смирнова А.      18566
     6 Баратынский Е.А. 15899
     7 Башкатов А.      14282
     8 Бернет Е.        13783
     9 Быстроглазов А.  11603
    10 Демидов М.А.     10370
    # ℹ 15 more rows
…
