…
     9 И. П. Мятлев         43  3.55
    10 А. Н. Майков         42  3.47
    11 П. П. Ершов          40  3.30
    12 Ф. И. Тютчев         37  3.05
    13 А. И. Полежаев       36  2.97
    14 Н. М. Языков         33  2.72
    15 Н. П. Огарев         33  2.72
    16 Н. В. Кукольник      25  2.06
    17 В. И. Соколовский    21  1.73
    18 Н. М. Сатин          21  1.73
    19 А. К. Толстой        17  1.40
    20 Д. В. Давыдов        17  1.40
    [1] "Sources:"

    # A tibble: 43 × 3
    # Groups:   source [43]
       source                                                                n  perc
       <chr>                                                             <int> <dbl>
     1 Поэты 1820-1830-х годов. Библиотека поэта. Второе издание. -- Л.…   166 13.7 
     2 В. Г. Бенедиктов. Стихотворения. -- Л.: Советский писатель, 1939…   159 13.1 
     3 М. Ю. Лермонтов. Полное собрание сочинений: В 5 т. -- М. Л.: Aca…    82  6.77
     4 А. В. Кольцов. Полное собрание стихотворений. -- Л.: Сов. писате…    74  6.11
     5 Н. А. Некрасов. Полное собрание стихотворений: В 3 тт. Библиотек…    59  4.87
     6 Пушкин А. С. Полное собрание сочинений, 1837-1937: В 16 т. Т. 3      58  4.79
     7 А. А. Фет. Стихотворения и поэмы. Библиотека поэта. Большая сери…    53  4.37
     8 Жуковский В. А. Полное собрание сочинений и писем. М.: Языки сла…    47  3.88
     9 Евдокия Ростопчина. Стихотворения Проза Письма. -- М., Сов. Росс…    43  3.55
    10 И. П. Мятлев. Стихотворения. Библиотека поэта. -- Л.: Советский …    43  3.55
    # ℹ 33 more rows
…
     9 Н. А. Некрасов       59  2.45
    10 И. П. Мятлев         57  2.37
    11 Е. П. Ростопчина     56  2.32
    12 А. А. Фет            53  2.20
    13 Е. А. Баратынский    52  2.16
    14 П. П. Ершов          49  2.03
    15 А. И. Одоевский      47  1.95
    16 А. Н. Майков         42  1.74
    17 А. С. Хомяков        37  1.54
    18 Н. В. Кукольник      35  1.45
    19 Н. П. Огарев         34  1.41
    20 Д. В. Давыдов        32  1.33
    [1] "Sources:"

    # A tibble: 50 × 3
    # Groups:   source [50]
       source                                                                n  perc
       <chr>                                                             <int> <dbl>
     1 Поэты 1820-1830-х годов. Библиотека поэта. Второе издание. -- Л.…   361 15.0 
     2 М. Ю. Лермонтов. Полное собрание сочинений: В 5 т. -- М. Л.: Aca…   357 14.8 
     3 Пушкин А. С. Полное собрание сочинений, 1837-1937: В 16 т. Т. 3     178  7.39
     4 В. Г. Бенедиктов. Стихотворения. -- Л.: Советский писатель, 1939…   165  6.85
     5 Жуковский В. А. Полное собрание сочинений и писем. М.: Языки сла…   116  4.82
     6 А. В. Кольцов. Полное собрание стихотворений. -- Л.: Сов. писате…   113  4.69
     7 Н. М. Языков. Полное собрание стихотворений                         101  4.19
     8 А. Полежаев. Стихотворения и поэмы. Библиотека поэта. Большая се…   100  4.15
     9 Тютчев Ф. И. Полное собрание стихотворений                           67  2.78
    10 Н. А. Некрасов. Полное собрание стихотворений: В 3 тт. Библиотек…    59  2.45
    # ℹ 40 more rows
…
#### “Poet’s library” quick check

``` r
authors_1830 <- nkrja_1830$author

# select authors from 1830s and see their sources
test <- c19 %>% 
    filter(author %in% authors_1830) %>% 
    group_by(source) %>% 
    count(sort = T)

test
```

    # A tibble: 59 × 2
    # Groups:   source [59]
       source                                                                      n
       <chr>                                                                   <int>
     1 "Жуковский В. А. Полное собрание сочинений и писем. М.: Языки славянск…   671
     2 "Поэты 1820-1830-х годов. Библиотека поэта. Второе издание. -- Л.: Сов…   637
     3 "А. А. Фет. Стихотворения и поэмы. Библиотека поэта. Большая серия. Тр…   582
     4 "М. Ю. Лермонтов. Полное собрание сочинений: В 5 т. -- М. Л.: Academia…   474
     5 "Н. Ф. Щербина. Стихотворения. Библиотека поэта. -- Л.: Советский писа…   470
     6 "А. Н. Майков. Избранные произведения. Библиотека поэта. Большая серия…   419
     7 "И. И. Дмитриев. Полное собрание стихотворений. Библиотека поэта. Боль…   391
     8 "Пушкин А. С. Полное собрание сочинений, 1837-1937: В 16 т. Т.2"          381
     9 "Н. М. Языков. Полное собрание стихотворений"                             360
    10 ""                                                                        357
    # ℹ 49 more rows
…
    [1] "Top 30% authors presents % of texts:"

``` r
per %>% 
        filter(A_ID != "") %>% 
        group_by(author) %>% 
        count(sort = T) %>% 
        mutate(perc = n / nrow(per) * 100) %>% 
        head(round(n_unique_author_per*0.3)) #%>% 
```

    # A tibble: 57 × 3
    # Groups:   author [57]
       author              n  perc
       <chr>           <int> <dbl>
     1 Якубович Л.А.      57  2.99
     2 Ростопчина Е.П.    44  2.31
     3 Кольцов А.В.       40  2.10
     4 Пушкин А.С.        40  2.10
     5 Тютчев Ф.И.        40  2.10
     6 Козлов И.И.        38  1.99
     7 Бенедиктов В.Г.    35  1.84
     8 Кони Ф.А.          35  1.84
     9 Красов В.И.        35  1.84
    10 Стромилов С.И.     35  1.84
    # ℹ 47 more rows
…
