…
    Warning: Returning more (or less) than 1 row per `summarise()` group was deprecated in
    dplyr 1.1.0.
    ℹ Please use `reframe()` instead.
    ℹ When switching from `summarise()` to `reframe()`, remember that `reframe()`
      always returns an ungrouped data frame and adjust accordingly.

    `summarise()` has grouped output by 'per_name', 'year'. You can override using
    the `.groups` argument.

    # A tibble: 29 × 3
       per_name     year author_names                                               
       <chr>       <int> <chr>                                                      
     1 БдЧ          1835 Пушкин А.С. (16), Козлов И.И. (11), Ершов П.П. (6), Якубов…
     2 ЛПРИ/ЛГ      1835 Глинка Ф.Н. (7), Менцов Ф.Н. (7), Галанин И.Д. (6), Демидо…
     3 МН           1835 Ознобишин Д.П. (5), Теплова Н.С. (5), Баратынский Е.А. (4)…
     4 СО           1835 Тимофеев А.В. (6), Шаликов П.И. (4), Булгаков А.И. (3), Во…
     5 БдЧ          1836 Козлов И.И. (12), Тимофеев А.В. (9), Бенедиктов В.Г. (6), …
     6 ЛПРИ/ЛГ      1836 Демидов М.А. (10), Мызников В.Я. (7), Фон-Бейер Г. (5), Гл…
     7 МН           1836 Стромилов С.И. (4), Волконская З.А. (3), Ознобишин Д.П. (3…
     8 СО           1836 Кони Ф.А. (3), Бороздна И.П. (2), Александров Б. (1), Крыл…
     9 Современник  1836 Тютчев Ф.И. (24), Пушкин А.С. (4), Давыдов Д.В. (3), Якубо…
    10 БдЧ          1837 Тимофеев А.В. (11), Бернет Е. (10), Кропоткин Д.А. (7), Ве…
    # ℹ 19 more rows
…
    Warning: Specifying the `id_cols` argument by position was deprecated in tidyr 1.3.0.
    ℹ Please explicitly name `id_cols`, like `id_cols = !n`.

    # A tibble: 76 × 7
       author_text    `1835` `1836` `1837` `1838` `1839` `1840`
       <chr>           <int>  <int>  <int>  <int>  <int>  <int>
     1 Пушкин А.С.         1     NA     13     NA     NA     NA
     2 Губер Э.И.         NA     NA     NA     NA     NA      1
     3 Козлов И.И.         2      1      8     NA     17     NA
     4 Тимофеев А.В.       9      2      1      4     22     NA
     5 Бернет Е.          NA     NA      2      8      4     NA
     6 Менцов Ф.Н.        22     NA     NA      1     10     NA
     7 Кропоткин Д.А.     NA     NA      3      3      1     NA
     8 Мейстер И.         NA     NA     NA      2      9     NA
     9 Греков Н.П.        NA     NA     NA     13     15      2
    10 Ершов П.П.          3     10     NA     15     NA      3
    # ℹ 66 more rows
…
  print(d)
  
}
```

    [1] "БдЧ"
    # A tibble: 76 × 8
       author_text     `1835` `1836` `1837` `1838` `1839` `1840` total
       <chr>            <dbl>  <dbl>  <dbl>  <dbl>  <dbl>  <dbl> <dbl>
     1 Тимофеев А.В.        1      1      1      1      1      0     5
     2 Ершов П.П.           1      1      0      1      0      1     4
     3 Козлов И.И.          1      1      1      0      1      0     4
     4 Бенедиктов В.Г.      0      1      1      0      1      1     4
     5 Менцов Ф.Н.          1      0      0      1      1      0     3
     6 Бернет Е.            0      0      1      1      1      0     3
     7 Кропоткин Д.А.       0      0      1      1      1      0     3
     8 Кукольник Н.В.       0      0      1      1      0      1     3
     9 Шахова Е.Н.          0      0      1      1      1      0     3
    10 Греков Н.П.          0      0      0      1      1      1     3
    # ℹ 66 more rows
    [1] "ЛПРИ"
    # A tibble: 99 × 8
       author_text      `1835` `1836` `1837` `1838` `1839` `1840` total
       <chr>             <dbl>  <dbl>  <dbl>  <dbl>  <dbl>  <dbl> <dbl>
     1 Якубович Л.А.         1      0      1      1      1      1     5
     2 Алексеев П.Ф.         1      1      0      1      1      0     4
     3 Менцов Ф.Н.           1      1      1      1      0      0     4
     4 Бенедиктов В.Г.       0      1      1      1      1      0     4
     5 Глинка Ф.Н.           1      1      1      0      0      0     3
     6 Греков Н.П.           1      0      0      0      1      1     3
     7 Федоров Б.М.          1      1      0      0      0      1     3
     8 Соколовский В.И.      0      0      1      1      1      0     3
     9 Стромилов С.И.        0      0      1      1      1      0     3
    10 Айбулат К.М.          0      0      0      1      1      1     3
    # ℹ 89 more rows
    [1] "СО"
    # A tibble: 65 × 8
       author_text     `1835` `1836` `1837` `1838` `1839` `1840` total
       <chr>            <dbl>  <dbl>  <dbl>  <dbl>  <dbl>  <dbl> <dbl>
     1 Гогниев И.Е.         1      0      0      1      1      1     4
     2 Кони Ф.А.            0      1      1      1      0      0     3
     3 Бенедиктов В.Г.      0      0      1      1      0      1     3
     4 Якубович Л.А.        0      0      1      1      1      0     3
     5 Кольцов А.В.         0      0      0      1      1      1     3
     6 Ростопчина Е.П.      0      0      0      1      1      1     3
     7 Сушков Д.П.          0      0      0      1      1      1     3
     8 Траум                0      0      0      1      1      1     3
     9 Менцов Ф.Н.          1      0      1      0      0      0     2
    10 Тимофеев А.В.        1      0      0      1      0      0     2
    # ℹ 55 more rows
    [1] "Совр"
    # A tibble: 51 × 7
       author_text      `1836` `1837` `1838` `1839` `1840` total
       <chr>             <dbl>  <dbl>  <dbl>  <dbl>  <dbl> <dbl>
     1 Баратынский Е.А.      1      1      1      1      1     5
     2 Жуковский В.А.        1      1      1      1      1     5
     3 Тютчев Ф.И.           1      1      1      1      1     5
     4 Пушкин А.С.           1      1      1      1      0     4
     5 Ростопчина Е.П.       0      1      1      1      1     4
     6 Вяземский П.А.        1      1      1      0      0     3
     7 Кольцов А.В.          1      0      1      1      0     3
     8 Якубович Л.А.         1      0      1      1      0     3
     9 Гребенка Е.П.         0      1      1      1      0     3
    10 Деларю М.Д.           0      1      1      1      0     3
    # ℹ 41 more rows
    [1] "ОЗ"
    # A tibble: 37 × 4
       author_text      `1839` `1840` total
       <chr>             <dbl>  <dbl> <dbl>
     1 Аксаков К.С.          1      1     2
     2 Баратынский Е.А.      1      1     2
     3 Вяземский П.А.        1      1     2
     4 Гребенка Е.П.         1      1     2
     5 Греков Н.П.           1      1     2
     6 Катков М.Н.           1      1     2
     7 Клюшников И.П.        1      1     2
     8 Кольцов А.В.          1      1     2
     9 Красов В.И.           1      1     2
    10 Лермонтов М.Ю.        1      1     2
    # ℹ 27 more rows
…
``` r
x <- per %>% 
  filter(!author_text %in% c("", "***", "N.N.") & per_cln %in% per_names) %>% 
  group_by(author_text, per_cln) %>% 
  count() %>% 
  ungroup() %>% 
  filter(n > 3)

x
```

    # A tibble: 98 × 3
       author_text      per_cln     n
       <chr>            <chr>   <int>
     1 Айбулат К.М.     ЛПРИ       13
     2 Айбулат К.М.     ОЗ          4
     3 Айбулат К.М.     Совр       10
     4 Алексеев П.Ф.    ЛПРИ        6
     5 Алексеев П.Ф.    СО          6
     6 Баратынский Е.А. Совр        8
     7 Бенедиктов В.Г.  БдЧ        13
     8 Бенедиктов В.Г.  ЛПРИ        9
     9 Бенедиктов В.Г.  СО          6
    10 Бернет Е.        БдЧ        15
    # ℹ 88 more rows
…
