…
Quick check for authors form almanacs

``` r
corpus_fullmeta %>% 
  filter(book_type == "alm") %>% 
  select(A_ID, author_book, author_text) %>% distinct
```

    # A tibble: 186 × 3
       A_ID    author_book     author_text  
       <chr>   <chr>           <chr>        
     1 ""      ""              ""           
     2 "A-271" "Крыловский В." "А. Грен"    
     3 ""      "Крыловский В." "А.-ий"      
     4 "A-42"  "Крыловский В." "Н. Грен"    
     5 ""      "Крыловский В." "Н.С."       
     6 ""      "Крыловский В." "Н.С. "      
     7 ""      "Крыловский В." "А. Левицкий"
     8 ""      "Крыловский В." "А. Лоренц"  
     9 ""      "Крыловский В." "А. В-в"     
    10 ""      "Крыловский В." "А.П."       
    # ℹ 176 more rows
…
