…
### sampling

Check distribution in number of texts

``` r
gamma %>% 
  select(author, year, corpus, index) %>% 
  distinct() %>% 
  count(author, corpus, sort = T) %>% 
  filter(author != "" & corpus == "M")
```

    # A tibble: 526 × 3
       author           corpus     n
       <chr>            <chr>  <int>
     1 СухановМД        M        138
     2 ТимофеевАВ       M        125
     3 ЕлизаветаКульман M        122
     4 БыстроглазовА    M        120
     5 МейснерАЯ        M        116
     6 БашкатовА        M        103
     7 ДемидовМА        M        101
     8 БернетЕ          M         93
     9 МерклиММ         M         89
    10 МартыновА        M         83
    # ℹ 516 more rows
…
``` r
gamma %>% 
  select(author, year, corpus, index) %>% 
  distinct() %>% 
  count(author, corpus, sort = T) %>% 
  filter(author != "" & corpus == "N")
```

    # A tibble: 239 × 3
       author        corpus     n
       <chr>         <chr>  <int>
     1 ВАЖуковский   N       1148
     2 АСПушкин      N       1124
     3 МЮЛермонтов   N        602
     4 ГРДержавин    N        592
     5 НМЯзыков      N        450
     6 ИИДмитриев    N        446
     7 ААФет         N        315
     8 ЕАБаратынский N        280
     9 ПАВяземский   N        275
    10 ВВКапнист     N        265
    # ℹ 229 more rows
…
       Min. 1st Qu.  Median    Mean 3rd Qu.    Max. 
       1.00    3.00   16.00   34.24   33.25  432.00 

``` r
# filter overpresented authors
top_authors <- rnc_authors %>% 
    filter(n_texts > 30) %>% select(author) # 19 authors

top_authors
```

    # A tibble: 21 × 1
       author      
       <chr>       
     1 МЮЛермонтов 
     2 АСПушкин    
     3 ВГБенедиктов
     4 ВАЖуковский 
     5 АИПолежаев  
     6 НМЯзыков    
     7 АВКольцов   
     8 ППЕршов     
     9 НАНекрасов  
    10 ФИТютчев    
    # ℹ 11 more rows
…
