…
Number of tokens by authors

``` r
corpus_1835 %>%
  #filter(author_text != "") %>% 
  select(author_text, corpus, text_lemm) %>% 
  unnest_tokens(input = text_lemm, output = word, token = "words") %>%
  count(author_text, sort = T) %>% head(30)
```

    # A tibble: 30 × 2
       author_text           n
       <chr>             <int>
     1 "Жуковский В.А."  36554
     2 "Крылов И.А."     34887
     3 ""                33293
     4 "Кульман Е.Б."    25338
     5 "Бернет Е."       22293
     6 "Тимофеев А.В."   20729
     7 "Бороздна И.П."   20096
     8 "Быстроглазов А." 19582
     9 "Смирнова А."     19216
    10 "Бенедиктов В.Г." 18315
    # ℹ 20 more rows
…
# Subtitles & genres

Simple word counter for genres and keywords in titles

``` r
corpus_1835 %>% 
  mutate(title_words = paste(text_title, text_subtitle)) %>% 
  filter(text_title != "NA" & text_subtitle != "na") %>% 
  select(text_id, text_title, title_words) %>% 
  unnest_tokens(input = title_words, output = word, token = "words") %>%
  #filter(word == "е") #%>% 
  count(word, sort = T) 
```

    # A tibble: 4,432 × 2
       word              n
       <chr>         <int>
     1 к               379
     2 и               365
     3 из              256
     4 в               221
     5 на              189
     6 песня           154
     7 песни           136
     8 с                96
     9 романс           74
    10 стихотворения    63
    # ℹ 4,422 more rows
…
``` r
titles %>% 
  filter(lemma %in% genres) %>% 
  mutate(corpus = str_extract(text_id, "^\\w")) %>% 
  count(corpus, lemma, sort = T) %>% 
  pivot_wider(names_from = corpus, values_from = n)
```

    # A tibble: 48 × 3
       lemma        P     C
       <chr>    <int> <int>
     1 песня      164   132
     2 романс      19    96
     3 басня       12    57
     4 сонет       30    51
     5 шарада      51    NA
     6 элегия      29    44
     7 послание     6    37
     8 альбом      19    34
     9 дума        31    21
    10 песнь       28    30
    # ℹ 38 more rows
…
      corpus   n total     perc
    1      C 657  2894 22.70214
    2      P 513  1905 26.92913

``` r
titles %>% 
  filter(lemma %in% genres_shortlist) %>% 
  mutate(corpus = str_extract(text_id, "^\\w")) %>% 
  count(corpus, lemma, sort = T) %>% 
  left_join(n_corpus, by = "corpus") %>% 
  mutate(perc = round(n/total*100, 2)) %>% select(-n, -total) %>% 
  pivot_wider(names_from = corpus, values_from = perc)
```

    # A tibble: 23 × 3
       lemma        P     C
       <chr>    <dbl> <dbl>
     1 песня     8.61  4.56
     2 романс    1     3.32
     3 басня     0.63  1.97
     4 сонет     1.57  1.76
     5 элегия    1.52  1.52
     6 послание  0.31  1.28
     7 альбом    1     1.17
     8 дума      1.63  0.73
     9 песнь     1.47  1.04
    10 баллада   1.52  0.55
    # ℹ 13 more rows
…
