…
## Aggregation

### genres - n lines available

Available number of lines for each genre after sampling

``` r
genres_only %>% 
  select(-text_cln) %>% 
  separate_rows(text_lemm, sep = "\n") %>% 
  group_by(genre) %>% 
  count(sort = T)
```

    # A tibble: 23 × 2
    # Groups:   genre [23]
       genre        n
       <chr>    <int>
     1 песня     5927
     2 элегия    2307
     3 романс    2300
     4 послание  2170
     5 баллада   2115
     6 песнь     1825
     7 отрывок   1645
     8 сонет     1408
     9 басня     1168
    10 дума      1127
    # ℹ 13 more rows

Number of lines in each meter

``` r
genres_only %>% 
  select(-text_cln) %>% 
  separate_rows(text_lemm, sep = "\n") %>% 
  group_by(genre, meter) %>% 
  count(sort = T)
```

    # A tibble: 89 × 3
    # Groups:   genre, meter [89]
       genre    meter       n
       <chr>    <chr>   <int>
     1 послание Iamb     1941
     2 песня    Trochee  1907
     3 элегия   Iamb     1869
     4 песня    Other    1841
     5 отрывок  Iamb     1270
     6 романс   Iamb     1192
     7 басня    Iamb     1168
     8 сонет    Iamb     1157
     9 песня    Iamb     1116
    10 баллада  Trochee   794
    # ℹ 79 more rows
…
