…
``` r
glimpse(ids_genres)
```

    Rows: 1,100
    Columns: 2
    $ text_id <chr> "C_101__1", "C_101__10", "C_101__11", "C_101__12", "C_101__13"…
    $ genre   <chr> "романс", "романс", "романс", "романс", "романс", "романс", "р…

``` r
ids_genres %>% count(genre, sort = T)
```

    # A tibble: 23 × 2
       genre       n
       <chr>   <int>
     1 песня     242
     2 романс    104
     3 сонет      79
     4 элегия     72
     5 басня      69
     6 песнь      57
     7 альбом     51
     8 дума       51
     9 баллада    45
    10 отрывок    43
    # ℹ 13 more rows
…
