…
``` r
authors_lines <- corpus1835 %>% 
  select(text_id, author_text, meter, text_lemm) %>% 
  separate_rows(text_lemm, sep = "\n") %>% 
  filter(text_lemm != "" & !str_detect(text_lemm, "^\\W+$|^\\s+$")) %>% 
  group_by(author_text) %>% 
  count(sort = T) %>% 
  ungroup() %>% 
  filter(n > 1000 & author_text != "")

authors_lines
```

    # A tibble: 49 × 2
       author_text          n
       <chr>            <int>
     1 Кульман Е.Б.      7851
     2 Жуковский В.А.    7766
     3 Крылов И.А.       6147
     4 Тимофеев А.В.     4887
     5 Бороздна И.П.     4834
     6 Бернет Е.         4654
     7 Быстроглазов А.   4335
     8 Бенедиктов В.Г.   4029
     9 Баратынский Е.А.  3906
    10 Башкатов А.       3451
    # ℹ 39 more rows
…
``` r
corpus1835 %>% 
  select(text_id, author_text, meter, text_lemm) %>% 
  separate_rows(text_lemm, sep = "\n") %>% 
  filter(text_lemm != "" & !str_detect(text_lemm, "^\\W+$|^\\s+$")) %>% 
  group_by(author_text, meter) %>% 
  count(sort = T) %>% 
  ungroup() %>% 
  filter(author_text %in% authors_lines$author_text) %>% 
  filter(meter != "Other?") %>% 
  arrange(-desc(author_text))
```

    # A tibble: 188 × 3
       author_text      meter          n
       <chr>            <fct>      <int>
     1 Алексеев П.Ф.    Iamb         800
     2 Алексеев П.Ф.    Trochee      508
     3 Алексеев П.Ф.    Anapest       99
     4 Алексеев П.Ф.    Amphibrach    89
     5 Бакунин И.М.     Iamb        1537
     6 Бакунин И.М.     Amphibrach   269
     7 Бакунин И.М.     Trochee       52
     8 Бакунин И.М.     Anapest       24
     9 Баратынский Е.А. Iamb        3411
    10 Баратынский Е.А. Trochee      329
    # ℹ 178 more rows
…
  
  group_by(author_text) %>% 
  sample_n(1000) %>% # sample 1000 lines from each author
  ungroup() %>% 
  
  # count number of lines of each meter
  group_by(author_text, formula) %>% 
  count() %>% 
  ungroup() %>% 
  pivot_wider(names_from = formula, values_from = n, values_fill = 0)

metrical_mtrx
```

    # A tibble: 45 × 29
       author_text   Amphibrach_4 Amphibrach_other Anapest_2 Anapest_4 Iamb_4 Iamb_5
       <chr>                <int>            <int>     <int>     <int>  <int>  <int>
     1 Алексеев П.Ф.           39               26        26        42    256     40
     2 Бакунин И.М.           104               19         0         0    556      0
     3 Баратынский …           14               12         0         0    427     86
     4 Башкатов А.              0                0         0         0    715      0
     5 Бенедиктов В…          105               64         0         0    250     79
     6 Бернет Е.               58               23         0         0    178     41
     7 Бороздна И.П.            0                0         0         0    957      4
     8 Быстроглазов…           31              100         0         0    442     74
     9 Вердеревский…            0                0         0         0    369      0
    10 Глинка Ф.Н.              0                0         0         0    450      0
    # ℹ 35 more rows
    # ℹ 22 more variables: Iamb_6 <int>, Iamb_other <int>, Trochee_4 <int>,
    #   Trochee_6 <int>, Trochee_other <int>, Amphibrach_2 <int>,
    #   Anapest_other <int>, Amphibrach_3 <int>, Iamb_2 <int>, Iamb_3 <int>,
    #   Dactyl_3 <int>, Anapest_3 <int>, Dactyl_other <int>, Trochee_5 <int>,
    #   Trochee_3 <int>, Anapest_5 <int>, Dactyl_6 <int>, Amphibrach_5 <int>,
    #   Dactyl_4 <int>, Amphibrach_6 <int>, Dactyl_2 <int>, Dactyl_5 <int>
…
